current directory: /home/ec2-user/.rvm/gems/ruby-2.6.3/gems/ffi-1.11.1/ext/ffi_c
/home/ec2-user/.rvm/rubies/ruby-2.6.3/bin/ruby -I /home/ec2-user/.rvm/rubies/ruby-2.6.3/lib/ruby/2.6.0 -r ./siteconf20190522-4523-1kmgde8.rb extconf.rb
checking for ffi_call() in -lffi... yes
checking for ffi_closure_alloc()... yes
checking for shlwapi.h... no
checking for rb_thread_call_without_gvl()... yes
checking for ruby_native_thread_p()... yes
checking for ruby_thread_has_gvl_p()... yes
checking for ffi_prep_cif_var()... yes
checking for ffi_raw_call()... yes
checking for ffi_prep_raw_closure()... yes
creating extconf.h
creating Makefile

current directory: /home/ec2-user/.rvm/gems/ruby-2.6.3/gems/ffi-1.11.1/ext/ffi_c
make "DESTDIR=" clean

current directory: /home/ec2-user/.rvm/gems/ruby-2.6.3/gems/ffi-1.11.1/ext/ffi_c
make "DESTDIR="
compiling AbstractMemory.c
compiling ArrayType.c
compiling Buffer.c
compiling Call.c
compiling ClosurePool.c
compiling DynamicLibrary.c
compiling Function.c
compiling FunctionInfo.c
compiling LastError.c
compiling LongDouble.c
compiling MappedType.c
compiling MemoryPointer.c
compiling MethodHandle.c
compiling Platform.c
compiling Pointer.c
compiling Struct.c
compiling StructByValue.c
compiling StructLayout.c
compiling Thread.c
compiling Type.c
compiling Types.c
compiling Variadic.c
compiling ffi.c
linking shared-object ffi_c.so

current directory: /home/ec2-user/.rvm/gems/ruby-2.6.3/gems/ffi-1.11.1/ext/ffi_c
make "DESTDIR=" install
/usr/bin/install -c -m 0755 ffi_c.so ./.gem.20190522-4523-12yhcgh
