current directory: /home/ec2-user/.rvm/gems/ruby-2.6.3/gems/sqlite3-1.4.1/ext/sqlite3
/home/ec2-user/.rvm/rubies/ruby-2.6.3/bin/ruby -I /home/ec2-user/.rvm/rubies/ruby-2.6.3/lib/ruby/2.6.0 -r ./siteconf20190522-4523-186rrq1.rb extconf.rb
checking for sqlite3.h... yes
checking for pthread_create() in -lpthread... yes
checking for -ldl... yes
checking for sqlite3_libversion_number() in -lsqlite3... yes
checking for rb_proc_arity()... yes
checking for rb_integer_pack()... yes
checking for sqlite3_initialize()... yes
checking for sqlite3_backup_init()... yes
checking for sqlite3_column_database_name()... yes
checking for sqlite3_enable_load_extension()... yes
checking for sqlite3_load_extension()... yes
checking for sqlite3_open_v2()... yes
checking for sqlite3_prepare_v2()... yes
checking for sqlite3_int64 in sqlite3.h... yes
checking for sqlite3_uint64 in sqlite3.h... yes
creating Makefile

current directory: /home/ec2-user/.rvm/gems/ruby-2.6.3/gems/sqlite3-1.4.1/ext/sqlite3
make "DESTDIR=" clean

current directory: /home/ec2-user/.rvm/gems/ruby-2.6.3/gems/sqlite3-1.4.1/ext/sqlite3
make "DESTDIR="
compiling aggregator.c
compiling backup.c
compiling database.c
database.c: In function ‘rb_sqlite3_open_v2’:
database.c:38:9: warning: unused variable ‘flags’ [-Wunused-variable]
   VALUE flags;
         ^
database.c: In function ‘exec_batch’:
database.c:724:5: warning: passing argument 3 of ‘sqlite3_exec’ from incompatible pointer type [enabled by default]
     status = sqlite3_exec(ctx->db, StringValuePtr(sql), hash_callback_function, callback_ary, &errMsg);
     ^
In file included from ./sqlite3_ruby.h:25:0,
                 from database.c:1:
/usr/include/sqlite3.h:379:16: note: expected ‘int (*)(void *, int,  char **, char **)’ but argument is of type ‘int (*)(VALUE,  int,  char **, char **)’
 SQLITE_API int sqlite3_exec(
                ^
database.c:724:5: warning: passing argument 4 of ‘sqlite3_exec’ makes pointer from integer without a cast [enabled by default]
     status = sqlite3_exec(ctx->db, StringValuePtr(sql), hash_callback_function, callback_ary, &errMsg);
     ^
In file included from ./sqlite3_ruby.h:25:0,
                 from database.c:1:
/usr/include/sqlite3.h:379:16: note: expected ‘void *’ but argument is of type ‘VALUE’
 SQLITE_API int sqlite3_exec(
                ^
database.c:726:5: warning: passing argument 3 of ‘sqlite3_exec’ from incompatible pointer type [enabled by default]
     status = sqlite3_exec(ctx->db, StringValuePtr(sql), regular_callback_function, callback_ary, &errMsg);
     ^
In file included from ./sqlite3_ruby.h:25:0,
                 from database.c:1:
/usr/include/sqlite3.h:379:16: note: expected ‘int (*)(void *, int,  char **, char **)’ but argument is of type ‘int (*)(VALUE,  int,  char **, char **)’
 SQLITE_API int sqlite3_exec(
                ^
database.c:726:5: warning: passing argument 4 of ‘sqlite3_exec’ makes pointer from integer without a cast [enabled by default]
     status = sqlite3_exec(ctx->db, StringValuePtr(sql), regular_callback_function, callback_ary, &errMsg);
     ^
In file included from ./sqlite3_ruby.h:25:0,
                 from database.c:1:
/usr/include/sqlite3.h:379:16: note: expected ‘void *’ but argument is of type ‘VALUE’
 SQLITE_API int sqlite3_exec(
                ^
database.c: At top level:
cc1: warning: unrecognized command line option "-Wno-tautological-compare" [enabled by default]
cc1: warning: unrecognized command line option "-Wno-self-assign" [enabled by default]
cc1: warning: unrecognized command line option "-Wno-parentheses-equality" [enabled by default]
cc1: warning: unrecognized command line option "-Wno-constant-logical-operand" [enabled by default]
cc1: warning: unrecognized command line option "-Wno-cast-function-type" [enabled by default]
compiling exception.c
compiling sqlite3.c
compiling statement.c
linking shared-object sqlite3/sqlite3_native.so

current directory: /home/ec2-user/.rvm/gems/ruby-2.6.3/gems/sqlite3-1.4.1/ext/sqlite3
make "DESTDIR=" install
/usr/bin/install -c -m 0755 sqlite3_native.so ./.gem.20190522-4523-1en9ccq/sqlite3
